algorithm=FCFS
expropiative_mode=0
process_count=5
work_load=10000000,10000000,10000000,10000000,10000000
arrival_times=1000,1100,1200,1300,1400
burst_time=2000000,2000000,2000000,2000000,2000000
initial_priority=0,0,0,0,0
IO_block=100,100,100,100,100
quantum=100
