algorithm=MFQS
expropiative_mode=1
process_count=13
work_load=2000000,6000000,4000000,8000000,7000000,9000000,100000,1500000,8200000,5200000,6500000,8100000,6500000
arrival_times=10000,11011,12000,13000,14000,15000,17000,16000,14500,12500,11500,5000,2500
burst_time=684000,15000,110000,160000,68400,108000,1012,1001760,1670000,100012,101500,106700,1008900
initial_priority=0,1,0,2,1,2,2,1,1,0,1,2,0
IO_block=200,200,200,200,200,200,200,200,200,200,200,200,200
quantum=100
