algorithm=SJF
expropiative_mode=0
process_count=5
work_load=10000000,10000000,10000000,10000000,10000000
arrival_times=1000,1000,1000,1000,1000
burst_time=1000000,500000,400000,300000,200000
initial_priority=0,0,0,0,0
IO_block=100,100,100,100,100
quantum=100
